<svg version="1.1" id="Laag_1" xmlns="http://www.w3.org/2000/svg" xmlns:xlink="http://www.w3.org/1999/xlink" x="0px" y="0px"
	 viewBox="0 0 29 28.8" style="enable-background:new 0 0 29 28.8;" xml:space="preserve" width="29" height="28.8">
<g>
	<path class="st0" d="M28.5,1.2L21.1,0c-0.1,0-0.2,0-0.4,0l-6.9,3.2L8,0.6c-0.1-0.1-0.3-0.1-0.5,0L0.4,3.3C0.2,3.3,0,3.6,0,3.8v18.4
		c0,0.2,0.1,0.4,0.3,0.5c0.1,0.1,0.2,0.1,0.3,0.1c0.1,0,0.1,0,0.2,0l6.9-2.6l5.5,2.5c0.3,0.1,0.7,0,0.8-0.3c0.1-0.3,0-0.7-0.3-0.8
		L8,18.9c-0.1-0.1-0.3-0.1-0.5,0l-6.4,2.4V4.2l6.6-2.5l5.8,2.6c0.2,0.1,0.3,0.1,0.5,0l7-3.2l6.7,1.1v17.1l-1.7-0.3
		c-0.3-0.1-0.6,0.2-0.7,0.5c-0.1,0.3,0.2,0.6,0.5,0.7l2.4,0.5c0.2,0,0.4,0,0.5-0.1c0.1-0.1,0.2-0.3,0.2-0.5V1.8
		C29,1.5,28.8,1.3,28.5,1.2"/>
	<path class="st0" d="M7.2,4.6v11.6c0,0.3,0.3,0.6,0.6,0.6s0.6-0.3,0.6-0.6V4.6C8.4,4.3,8.1,4,7.8,4S7.2,4.3,7.2,4.6"/>
	<path class="st0" d="M14.4,11.3V6.9c0-0.3-0.3-0.6-0.6-0.6c-0.3,0-0.6,0.3-0.6,0.6v4.4c0,0.3,0.3,0.6,0.6,0.6
		C14.2,12,14.4,11.7,14.4,11.3"/>
	<path class="st0" d="M21.7,9.7V3.8c0-0.3-0.3-0.6-0.6-0.6s-0.6,0.3-0.6,0.6v5.9c0,0.3,0.3,0.6,0.6,0.6S21.7,10,21.7,9.7"/>
	<path class="st0" d="M19.3,27.1c-1.6-2.5-4.5-7.4-4.5-9.4c0-2.5,2-4.4,4.5-4.4s4.5,2,4.5,4.4C23.8,19.7,20.9,24.6,19.3,27.1
		 M19.3,12.1c-3.1,0-5.7,2.5-5.7,5.7c0,2.9,4.6,10,5.2,10.8c0.1,0.2,0.3,0.3,0.5,0.3c0.2,0,0.4-0.1,0.5-0.3
		c0.5-0.8,5.2-7.9,5.2-10.8C25,14.6,22.4,12.1,19.3,12.1"/>
	<path class="st0" d="M19.3,18c-0.4,0-0.7-0.3-0.7-0.6c0-0.4,0.3-0.6,0.7-0.6c0.4,0,0.7,0.3,0.7,0.6C19.9,17.7,19.6,18,19.3,18
		 M19.3,15.5c-1,0-1.9,0.8-1.9,1.9c0,1,0.8,1.9,1.9,1.9c1,0,1.9-0.8,1.9-1.9C21.1,16.4,20.3,15.5,19.3,15.5"/>
</g>
</svg>
