<svg version="1.1" id="Laag_1" xmlns="http://www.w3.org/2000/svg" xmlns:xlink="http://www.w3.org/1999/xlink" x="0px" y="0px"
	 viewBox="0 0 167.4 124.9" style="enable-background:new 0 0 167.4 124.9;" xml:space="preserve" width="167.4" height="124.9">
<style type="text/css">
	.st0{fill:#FFFFFF;}
</style>
<path class="st0" d="M11.3,82.2v-1.7h8.1v1.7h-1.3c-0.8,0-1,0.1-1.8,0.9l-5.1,5.3l5.6,7.6c0.7,0.9,0.8,0.9,1.8,0.9h1.2v1.8h-6.4
	L7.2,90v5.8c0,1,0.2,1.1,1.1,1.1h1.4v1.8H0v-1.8h1.6c0.9,0,1.1-0.1,1.1-1.1V83.3c0-1-0.2-1.1-1.1-1.1H0v-1.7h9.8v1.7H8.4
	c-0.9,0-1.1,0.1-1.1,1.1V89l4.9-5.1c1.4-1.5,1.5-1.8,0.3-1.8H11.3z"/>
<path class="st0" d="M33.6,96.8c0.9,0,1.1-0.1,1.1-1.1v-2.1h2.8v5.1H21.2v-1.8h1.6c0.9,0,1.1-0.1,1.1-1.1V83.3c0-1-0.2-1.1-1.1-1.1
	h-1.6v-1.7H37v5.3h-2.8v-2.4c0-1-0.2-1.1-1.1-1.1h-4.6v5.8h5.5v2.2h-5.5v6.4H33.6z"/>
<path class="st0" d="M56.2,98.7h-4.5l-7.5-14.4v11.5c0,1,0.2,1.1,1.1,1.1h1.4v1.8H39v-1.8h1.6c0.9,0,1.1-0.1,1.1-1.1V83.3
	c0-1-0.2-1.1-1.1-1.1H39v-1.7h7.7l7.1,13.6V83.3c0-1-0.2-1.1-1.1-1.1h-1.6v-1.7H59v1.7h-1.6c-0.9,0-1.1,0.1-1.1,1.1V98.7z"/>
<path class="st0" d="M70.4,96.9v1.8h-10v-1.8H62c0.9,0,1.1-0.1,1.1-1.1V83.3c0-1-0.2-1.1-1.1-1.1h-1.6v-1.7h10v1.7h-1.6
	c-0.9,0-1.1,0.1-1.1,1.1v12.5c0,1,0.2,1.1,1.1,1.1H70.4z"/>
<path class="st0" d="M89,98.7h-4.5l-7.5-14.4v11.5c0,1,0.2,1.1,1.1,1.1h1.4v1.8h-7.7v-1.8h1.6c0.9,0,1.1-0.1,1.1-1.1V83.3
	c0-1-0.2-1.1-1.1-1.1h-1.6v-1.7h7.7l7.1,13.6V83.3c0-1-0.2-1.1-1.1-1.1h-1.6v-1.7h7.8v1.7h-1.6c-0.9,0-1.1,0.1-1.1,1.1V98.7z"/>
<path class="st0" d="M108.3,81.3v5h-2.8v-2.2c0-0.5,0-0.8-0.3-1c-0.4-0.4-1.5-1.1-3.3-1.1c-3.1,0-4.9,2.9-4.9,7.8
	c0,3.7,1,7.5,5.1,7.5c1.5,0,2.4-0.3,3-0.5v-4.1c0-1-0.2-1.1-1.1-1.1H102v-1.8h9.5v1.8h-1.6c-0.9,0-1.1,0.1-1.1,1.1v5.5
	c-1,0.5-3.5,1.2-7,1.2c-4.9,0-9.5-2.4-9.5-9.4c0-7.8,4.9-9.8,9.5-9.8C105.3,80,108.1,81.2,108.3,81.3"/>
<path class="st0" d="M63.2,111.4l-0.7-0.6c0.5-0.6,1.4-2.1,1.4-4.1v-0.4h1.7C65.6,109.6,63.4,111.2,63.2,111.4"/>
<path class="st0" d="M27.1,109.7v1.9h3.7v1h-3.7v10.3c0,0.8,0,0.8,0.8,0.8h2v0.9h-6.6v-0.9h1.3c0.8,0,0.8,0,0.8-0.8v-10.3h-2.3v-1
	h2.3v-2.1c0-2.9,1-4.7,4.2-4.7c2.2,0,3.2,0.8,3.5,1v2.9h-1.3v-1.2c0-0.3,0-0.8-0.3-1.1c-0.4-0.4-0.8-0.6-1.8-0.6
	C27.6,105.8,27.1,107.6,27.1,109.7"/>
<path class="st0" d="M41.1,117.9c-3.6,0-6.3,0-6.3,3.1c0,1.6,1.1,2.6,2.5,2.6c2.3,0,3.6-1.4,3.8-1.7V117.9z M35.5,113.3
	c-0.3,0.3-0.4,0.7-0.4,1.1v0.7h-1.3v-2.6c0.3-0.2,1.9-1.3,4.6-1.3c3.7,0,4.3,1.9,4.3,3.7v7.7c0,0.8,0,0.8,0.8,0.8h1.3v0.9h-3.5
	l-0.1-1.4c-0.1,0.1-1.4,1.7-4.3,1.7c-2.6,0-3.9-1.5-3.9-3.6c0-4,3.4-4.2,6.1-4.2h2v-1.2c0-2.1-0.4-3.3-2.8-3.3
	C37,112.5,36.1,112.8,35.5,113.3"/>
<path class="st0" d="M50,113.2c0.5-0.5,2.3-1.9,4.6-1.9c2.8,0,4,1.6,4,4.4v7.1c0,0.8,0,0.8,0.8,0.8h1.3v0.9h-6v-0.9h1.4
	c0.8,0,0.8,0,0.8-0.8v-6.3c0-2.2-0.5-3.7-2.8-3.7c-1.9,0-3.7,1.2-4.2,1.7v8.4c0,0.8,0,0.8,0.8,0.8h1.4v0.9h-6v-0.9h1.3
	c0.8,0,0.8,0,0.8-0.8v-9.4c0-0.8,0-0.8-0.8-0.8h-1.3v-1h3.6L50,113.2z"/>
<path class="st0" d="M78,112.4c-2.4,0-3.6,1.7-3.8,4.6h7.2C81.4,113.7,79.7,112.4,78,112.4 M74.1,118c0,2.2,0.7,5.6,4.2,5.6
	c2.5,0,3.5-1.7,3.7-2l0.8,0.6c-0.1,0.2-1.3,2.6-4.6,2.6c-3.7,0-5.9-2.6-5.9-6.6c0-4.3,2.2-6.8,5.7-6.8c3.1,0,5.2,2.1,5.2,5.9v0.7
	H74.1z"/>
<path class="st0" d="M93.9,115.6c0,5.1,2.4,8.1,6.4,8.1c1.8,0,3.2-0.4,3.9-0.7v-4.8c0-1-0.2-1.1-1.1-1.1h-2.1v-1.1h7.8v1.1h-1.8
	c-0.9,0-1.1,0.1-1.1,1.1v5.6c-1,0.5-3,1.2-6,1.2c-4.9,0-8.1-3.1-8.1-9.3c0-7.2,3.7-9.7,8.2-9.7c3.2,0,5.4,1.1,5.7,1.3v4.1h-1.4v-1.8
	c0-0.5,0-0.8-0.3-1c-0.7-0.7-1.9-1.3-3.8-1.3C97.2,107.1,93.9,109.1,93.9,115.6"/>
<path class="st0" d="M118.9,111.7v3.2h-1.3v-0.8c0-0.8-0.5-1.2-1.3-1.2c-1.5,0-2.7,1.3-3.1,1.8v8.1c0,0.8,0,0.8,0.8,0.8h1.4v0.9h-6
	v-0.9h1.3c0.8,0,0.8,0,0.8-0.8v-9.4c0-0.8,0-0.8-0.8-0.8h-1.3v-1h3.5l0.1,1.8c1.2-1.5,2.4-2.1,3.8-2.1
	C118.1,111.3,118.6,111.5,118.9,111.7"/>
<path class="st0" d="M125.9,112.4c-2.4,0-3.6,1.7-3.8,4.6h7.2C129.3,113.7,127.6,112.4,125.9,112.4 M122,118c0,2.2,0.7,5.6,4.2,5.6
	c2.5,0,3.5-1.7,3.7-2l0.8,0.6c-0.1,0.2-1.3,2.6-4.6,2.6c-3.7,0-5.9-2.6-5.9-6.6c0-4.3,2.2-6.8,5.7-6.8c3.1,0,5.2,2.1,5.2,5.9v0.7
	H122z"/>
<path class="st0" d="M135.1,108.4c-0.8,0-1.3-0.5-1.3-1.3c0-0.8,0.5-1.3,1.3-1.3c0.8,0,1.3,0.5,1.3,1.3
	C136.4,107.9,135.9,108.4,135.1,108.4 M136,122.8c0,0.8,0,0.8,0.8,0.8h1.3v0.9h-5.9v-0.9h1.3c0.8,0,0.8,0,0.8-0.8v-9.4
	c0-0.8,0-0.8-0.8-0.8h-1.3v-1h3.8V122.8z"/>
<path class="st0" d="M148.4,114.8c-0.2-0.2-1.7-2.2-4-2.2c-2.3,0-3.7,2.3-3.7,5.3c0,3.6,1.1,5.6,3.7,5.6c2.4,0,3.9-2,4-2.3V114.8z
	 M148.4,106.9c0-0.8,0-0.8-0.8-0.8h-1.3v-0.9h3.8v17.6c0,0.8,0,0.8,0.8,0.8h1.3v0.9h-3.6l-0.1-1.7c-0.2,0.3-1.7,2-4.5,2
	c-2.8,0-5-2.1-5-6.5c0-4.3,1.9-6.9,5.1-6.9c2,0,3.4,0.9,4.3,2V106.9z"/>
<path class="st0" d="M158.7,112.4c-2.4,0-3.6,1.7-3.8,4.6h7.2C162.1,113.7,160.4,112.4,158.7,112.4 M154.8,118
	c0,2.2,0.7,5.6,4.2,5.6c2.5,0,3.5-1.7,3.7-2l0.8,0.6c-0.1,0.2-1.3,2.6-4.6,2.6c-3.7,0-5.9-2.6-5.9-6.6c0-4.3,2.2-6.8,5.7-6.8
	c3.1,0,5.2,2.1,5.2,5.9v0.7H154.8z"/>
<path class="st0" d="M46,2c-0.1,0-0.1,0-0.3,0c-0.1,0-0.1,0-0.3-0.1c-0.2-0.1-0.2-0.1-0.3-0.3c-0.1-0.1-0.1-0.2,0-0.2
	c0.1-0.1,0.3-0.2,0.5,0c0.2,0.1,0.2,0.1,0.3,0.2C46,1.8,46.1,2,46,2 M38,25.6c0,0.4-0.1,0.7-0.1,1.1c-0.2,0.6-0.3,1.3-0.5,1.9
	c-0.1,0.4-0.1,0.8-0.3,1.2c0,0.1,0,0.2-0.1,0.3c0,0,0,0,0,0c-0.2-0.4-0.2-1.5-0.1-2.1c0-0.3,0-0.6,0-0.8c0-0.2,0-0.3,0-0.5
	c0.1-0.6,0.1-1.3,0.3-1.8c0.1-0.2,0.2-0.5,0.3-0.7c0.1-0.1,0.2-0.2,0.3-0.3c0.1,0.1,0,0.3,0.1,0.4C38,24.7,38.1,25.2,38,25.6
	 M55.5,7.8c-0.6-0.4-1.2-0.7-1.8-1.1C52.9,6.1,52,5.5,51.1,5c-0.4-0.2-0.8-0.4-1.1-0.6c-0.6-0.4-1.1-0.9-1.7-1.3
	c-0.2-0.1-0.4-0.4-0.5-0.6c0-0.1,0-0.2-0.1-0.3c-0.1-0.2-0.3-0.4-0.4-0.6c-0.2-0.3-0.3-0.5-0.5-0.7c-0.5-0.3-0.8-0.6-1.5-0.8
	c-0.2,0-0.7-0.1-1-0.1c-0.2,0.1-0.5,0.2-0.7,0.3c-0.2,0.1-0.3,0.3-0.4,0.4C43.1,0.8,43.1,0.9,43,1c-0.1,0.2-0.3,0.4-0.4,0.7
	c-0.2,0.5-0.3,1.1-0.4,1.6c0,0.6,0,1.1,0,1.7c-0.1,0.4,0,0.9-0.1,1.3C42,6.5,42,6.8,42,7c-0.2,0.6-0.3,1.3-0.5,1.8
	c-0.1,0.2-0.1,0.4-0.3,0.6c-0.7,1-1.8,1.6-2.8,2.3c-0.3,0.2-0.6,0.6-0.8,0.9c-0.1,0.2-0.2,0.3-0.4,0.5c-0.3,0.2-0.6,0.5-0.9,0.7
	c-0.2,0.2-0.5,0.3-0.8,0.4c-0.3,0.2-0.5,0.4-0.8,0.6c-0.6,0.4-1.1,0.9-1.6,1.4c-0.3,0.2-0.5,0.6-0.8,0.8c-0.4,0.4-0.7,0.7-1.1,1.1
	c-0.1,0.1-0.2,0.2-0.3,0.3c-0.4,0.5-0.8,1-1.1,1.5c-0.2,0.3-0.4,0.7-0.6,1c-0.2,0.3-0.5,0.4-0.8,0.6c-0.3,0.2-0.5,0.5-0.7,0.7
	c-0.1,0.1-0.2,0.2-0.3,0.3c-1.1,1.4-2.2,2.7-3.7,3.8c-0.2,0.2-0.4,0.4-0.6,0.6c0,0.1,0.1,0.1,0.2,0.2c-0.1,0.2-0.2,0.3-0.2,0.5
	c0.1,0,0.2,0,0.3,0h0.1c-0.1,0.2-0.2,0.5-0.4,0.7v0c0.1,0,0.2-0.1,0.3-0.1c0.1,0,0.2,0,0.2-0.1h0.1c0,0.1,0,0.1-0.1,0.2
	c0,0.1,0.1,0.1,0.2,0.2c-0.1,0.1-0.2,0.3-0.1,0.4c0.2,0,0.4,0,0.5-0.1c0.4-0.1,0.7-0.3,1-0.5c0.2-0.1,0.3-0.3,0.5-0.4
	c0.1,0,0.2,0,0.3-0.1c0.3-0.1,0.5-0.2,0.8-0.3c0.2-0.1,0.4-0.1,0.5-0.2h0c0,0-0.1,0.1-0.1,0.1c0,0,0,0,0,0.1c0.8-0.1,1.4-0.5,2-0.7
	c0.2-0.1,0.5,0,0.8-0.1c0.3-0.1,0.6-0.3,0.9-0.5c0.4-0.2,0.9-0.3,1.1-0.6h0c0,0,0,0,0,0.1c0,0.1,0,0.1,0,0.2c0.4,0,0.8-0.2,1-0.4
	c0.1-0.1,0.2-0.3,0.4-0.4c0.1,0,0.1,0.1,0.1,0.1c0.2,0,0.5-0.1,0.7-0.2c0.2-0.1,0.2-0.3,0.6-0.3c0.1,0.1,0.2,0.2,0.3,0.2h0.1
	c0.1-0.1,0.2-0.3,0.3-0.3c0,0,0,0,0,0c0,0.1,0.1,0.2,0.1,0.3c0.4,0.1,0.5-0.1,0.7-0.3c0,0.1,0,0.3,0,0.4c0.1,0.3,0.1,0.5,0,0.8
	c-0.1,0.2,0,0.5,0,0.7c-0.1,0.4,0,0.7-0.1,1c-0.1,0.4-0.1,0.8-0.2,1.2c0,0.1,0,0.2,0,0.4c-0.1,0.5-0.2,1-0.3,1.5
	c0,0.2,0,0.4,0.1,0.5c0.1,0.3,0.1,0.6,0.1,0.9c0,0.2,0,0.4,0.1,0.6c0.1,0.5,0.1,1.1,0.3,1.7c0.1,0.3,0,0.7,0.1,1
	c0.1,1,0.1,1.9,0.2,2.9c0,0.1,0,0.9,0,1c0,0.2-0.2,0.3-0.3,0.4c-0.1,0.2-0.3,0.4-0.4,0.5c-0.1,0.1-0.3,0.3-0.2,0.5v0
	c0.3-0.1,0.8-0.5,0.9-0.7h0c0.1,0.2,0.2,0.4,0.3,0.6c0,0.1,0,0.1,0.1,0.2c0.3,0.1,0.6,0,0.8,0.1c0,0,0.1-0.1,0-0.3
	c0,0,0.4,0.2,0.5,0.2c0.2,0,0.4,0,0.6,0.1h0.3c0.4,0.1,0.9,0,1.3,0.1h0.3c0.3,0.1,1,0,1.3,0.1c0.3,0,0.5,0.1,0.8,0.2c0,0,0,0,0.1,0
	c0-0.4-0.7-0.3-1.1-0.4c-0.2,0-0.5,0-0.6-0.1c-0.3,0-0.6-0.1-0.9-0.1c-0.4-0.1-0.8-0.1-1.1-0.2c-0.4-0.1-0.8-0.3-1.1-0.5
	c-0.1-0.5,0-1.1-0.1-1.6c0-0.1,0-0.3,0-0.5v-0.8c-0.1-0.3-0.1-1-0.1-1.3v-0.5c-0.1-0.3,0-0.8,0-1.2v-0.4c-0.1-0.3,0-0.8,0-1.1
	c0-0.2,0-0.5,0-0.6c0-0.2,0.1-0.4,0.2-0.6c0-0.1,0.1-0.2,0.2-0.3c0-0.2-0.1-0.2-0.1-0.3c-0.1-0.2-0.1-0.8-0.1-1
	c0.1-0.3,0-0.5,0.1-0.8c0.2-0.9,0.2-1.9,0.4-2.7c0-0.3,0.1-0.5,0.1-0.8c0-0.1,0.1-0.2,0.1-0.2c0-0.1,0-0.2,0.1-0.3
	c0.2-0.3,0.5-0.4,0.7-0.7c0.1-0.1,0.2-0.3,0.3-0.4c0.2-0.1,0.4-0.1,0.6-0.2c0.1-0.1,0.1-0.1,0.2-0.2c0.3-0.2,0.6-0.5,0.9-0.7
	c0.1-0.1,0.2-0.1,0.4-0.2c0.1-0.1,0.3-0.2,0.4-0.3c0.2-0.1,0.3-0.3,0.5-0.5c0.3-0.3,0.6-0.5,0.8-0.8c0.2-0.2,0.3-0.5,0.4-0.8
	c0.1-0.2,0.2-0.4,0.3-0.6c0.1-0.3,0.2-0.5,0.3-0.8c0.1-0.2,0.2-0.5,0.3-0.7c0.1-0.3,0.1-0.5,0.1-0.8c0.1-0.6,0.2-1.1,0.3-1.7
	c0-0.3,0.1-0.7,0.1-1c0.1-0.5-0.1-1,0-1.4c0.1-0.5,0.1-1,0.2-1.5c0.1-0.4,0.3-0.9,0.4-1.4c0-0.1,0-0.2,0-0.3V8.9
	c0-0.8-0.2-1.6-0.3-2.3c-0.1-0.3,0-0.6,0.1-0.8c0-0.2,0-0.4,0-0.6c0.1-0.3,0.1-0.6,0.3-0.8c0.1,0,0.2-0.1,0.2-0.1c0.1,0,0.2,0,0.3,0
	c0.3-0.1,0.4-0.2,0.8-0.1c0.1,0,0.2,0,0.3,0c0.1,0,0.2,0.1,0.3,0.2c0.4,0.2,0.9,0.4,1.3,0.5c1.5,0.7,2.9,1.4,4.4,2.1
	C54,7.4,54.6,7.7,55.2,8c0.2,0.1,0.6,0.2,0.8,0.4c0.2,0,0.2,0,0.2-0.1C56.2,8,55.8,7.9,55.5,7.8"/>
<path class="st0" d="M59.7,52.8c0.7-0.1,0.6,0.5,0.5,1.1c0.7,0.2,2.4,0.5,2.4-0.5c-0.6-0.9-1.8-1.2-2.4-2.2
	C60.1,51.8,59.9,52.3,59.7,52.8 M145.3,98.5h-24.9c0-3.4,2.4-6.3,2.7-9.7c0.1-0.8-0.1-1.5,0-2.2c0.2-1.2,0.9-2.2,0.9-3.5
	c0-2.1-1.1-4.5,0.7-5.3c-0.7-0.8,0-1.3,0.4-2c-1.4-1.2-1.8-3.8-1.1-6c-1.7-0.3-3.3,0.3-4.8,0.2c-2.2-0.1-6.3-1.4-7.7-2.2
	c-0.8-0.5-1.5-1.5-2.4-2.2c-2.5-2-4.8-3.6-7.9-4.9c-1.4,2-2.5,4.6-4.4,6.2c-0.5,0.4-1.2,1.1-2,1.3c-1.5,0.3-3.5-0.2-5.3-0.4
	c-5.1-0.5-11.4-0.6-16.3-1.3c0-3.2-0.8-5.7-0.4-9c-1.4-1-3.6-0.9-5.8-1.1c-1.2-0.1-2.4-0.6-3.7-0.7c-2.2-0.2-3.9,0.2-4.6-1.3
	c-0.8,1.5-1.9,2.9-3.5,3.5c-4.1,1.4-12.3-1.1-14.4-4c-2-2.7-0.9-6-0.4-9.9c-1.3-1.1-3.7-1.8-3.7-3.7c0.8-1,2.1-0.6,3.1-0.4
	c1,0.2,2.1,0.6,2.9,0.9c5.9,2,12.4,3.2,18.6,4.8c0.7-0.1,2.1-0.3,3.5,0c1.1,0.3,2.3,1.3,3.3,1.3c1.4,1.3,2.8,2.6,3.8,4.2
	c3.9,2.1,9.9,2.1,13.7,4.2c1.5-0.3,3.6-0.9,5.3-0.4c-0.9-1.4,0.7-2.6,0.9-4c0.4-2,0.1-3.8-0.5-5.1c0.4-0.4,1.3-0.3,1.5-0.9
	c-1.1-1-1.6-3.4-1.6-4.9c-0.5,0.9-1.1-0.7-1.8-0.7c-0.1,0-0.4,0-0.4-0.2c-1-0.4-1,0.7-1.5,0.4c-0.1-1.1-0.4-1.8-1.5-1.1
	c-0.1-0.5,0.7-1.7-0.2-1.8c-3.1-1.2-3.3,3.2-5.7,3.3c-0.8,0-1.6-0.8-2.6-1.3c-0.5-0.2-1-0.3-1.5-0.5c-0.5-0.3-0.7-0.6-1.1-0.9
	c-0.5-0.3-1.4,1.2-2.4,0.4c-0.5-1-0.8-2.3-1.3-3.3c-0.8,0-1.5,0-2-0.2c-1.5-2.9-4.3-4.3-4.2-8.4c0-1.8,0.9-4.3,1.8-6
	c1.4-2.7,4.4-5.2,7.7-5.3c2.4-0.1,6.4,0.8,8,2.7c0.6,0.7,0.6,1.7,1.1,2.4c1,1.4,2.5,2.2,4,3.7c0.2-1.3,2.7-0.4,3.5-1.1
	c0.6-0.5,0.6,0.7,1.3,0.2c4.8-2.1,13.9-3.2,19.6-1.8c2.3,0.5,4.4,1.9,6.4,3.3c5.9,4.1,12.2,7.9,19,10.4c0.6-0.4-0.8-0.7-0.2-1.1
	c1.3-0.1,1.3,1.1,2,1.6c3,1.7,5.6,4.4,7.7,6.9c4.4,5.5,7.4,11.7,10.1,18.8c2.6,6.9,5.2,14.1,7.7,21.2c0.8,2.4,1.9,4.7,2.2,7.1
	c-2.8,1-5.7,0.2-8.2,0.9c-1.1,0.3-1.8,1.3-2.9,1.5c-1.8,0.2-3.9-0.8-6-0.9c0.5-2,0.1-4.8,0.2-7.3c0.1-1.9,0.8-4.3-0.9-5.1
	C148.1,84.7,146.8,91.8,145.3,98.5"/>
</svg>
