<svg version="1.1" id="Laag_1" xmlns="http://www.w3.org/2000/svg" xmlns:xlink="http://www.w3.org/1999/xlink" x="0px" y="0px"
	 viewBox="0 0 43.8 43.8" style="enable-background:new 0 0 43.8 43.8;" xml:space="preserve" width="43.8" height="43.8">
<g>
	<path class="st0" d="M43.8,21.9C43.8,9.8,34,0,21.9,0C9.8,0,0,9.8,0,21.9C0,34,9.8,43.8,21.9,43.8C34,43.8,43.8,34,43.8,21.9z
		 M29.8,30.8H14c-0.6,0-1-0.4-1-1s0.4-1,1-1h15.8c0.6,0,1,0.4,1,1S30.3,30.8,29.8,30.8z M29.8,23.8H14c-0.6,0-1-0.4-1-1
		c0-0.6,0.4-1,1-1h15.8c0.6,0,1,0.4,1,1C30.8,23.3,30.3,23.8,29.8,23.8z M29.8,17.8H14c-0.6,0-1-0.4-1-1s0.4-1,1-1h15.8
		c0.6,0,1,0.4,1,1S30.3,17.8,29.8,17.8z"/>
</g>
</svg>
