<?xml version="1.0" encoding="utf-8"?>
<!-- Generator: Adobe Illustrator 19.1.0, SVG Export Plug-In . SVG Version: 6.00 Build 0)  -->
<svg version="1.1" id="Laag_1" xmlns="http://www.w3.org/2000/svg" xmlns:xlink="http://www.w3.org/1999/xlink" x="0px" y="0px"
	 viewBox="0 0 136.6 138" style="enable-background:new 0 0 136.6 138;" xml:space="preserve">
<style type="text/css">
	.st0{fill:#1A171B;}
</style>
<path class="st0" d="M86.8,66.8c1.4,1.4,2.1,3.5,2.1,6.3c0,2.2-0.5,4.2-1.5,6.3H86c-1-2-1.5-4-1.5-6C84.9,69,85.7,66.8,86.8,66.8
	 M86.3,61.1c0.9,0,1.4,0.9,1.5,2.6c0,1-0.5,1.7-1.5,2.1c-0.6,0-1.1-0.7-1.5-2.1C84.8,62.3,85.3,61.4,86.3,61.1 M83.7,62.6v1.6
	c0.2,1.4,0.6,2.1,1.3,2.1v0.3c-1,1.6-1.5,3.3-1.5,5.2v2.4c0.2,4.1,1.3,6.3,3.1,6.5c2.2-0.4,3.4-2.6,3.4-6.5v-2.4
	c-0.4-3.5-1-5.2-1.8-5.2c0.7-1.7,1-2.7,1-2.9c0-1.7-0.7-3-2.1-3.7h-0.8C84.9,60,84.1,60.9,83.7,62.6 M76.9,63.7
	c0,0.3,0.2,0.5,0.5,0.5h0.8c0-0.1,0.2-0.8,0.5-2.1H79v16.8c0,0.4,0.2,0.5,0.5,0.5c0.3,0,0.5-0.2,0.5-0.5V58.4c0-0.3-0.2-0.5-0.5-0.5
	C78.9,58.5,78.1,60.4,76.9,63.7 M68.6,60.5h0.5c2.3,0,3.8,3.1,4.4,9.2c-0.5,6.3-2,9.4-4.6,9.4h-0.3c-2.2,0-3.7-2.6-4.4-7.9v-2.9
	C64.2,64.2,65.7,61.6,68.6,60.5 M62.9,69.7v1.1c0.7,6.5,2.7,9.7,5.9,9.7h0.3c3.8-1.3,5.7-4.9,5.7-10.7c0-5.7-1.9-9.2-5.7-10.5h-0.8
	C64.7,60.4,62.9,63.9,62.9,69.7 M48.9,65.2v0.5l0.3,1.3h1v-2.6c0.6-3.5,2.2-5.2,4.9-5.2h1c2.2,0.5,3.4,1.4,3.4,2.9v0.8
	c0,0.9-0.6,2.5-1.8,4.7c-4.6,5.5-7.5,9.2-8.8,11v0.3c0,0.4,0.2,0.5,0.5,0.5H59c0.3,0,0.5-0.2,0.5-0.5v-0.3c0-0.3-0.2-0.5-0.5-0.5
	h-8.3l0.8-1c6.2-6.7,9.3-11.7,9.3-14.9c-0.7-2.8-2.5-4.2-5.2-4.2C51.6,57.9,49.4,60.4,48.9,65.2"/>
<path class="st0" d="M26.1,15.1l9.9,7.5l9.4,14.4c0.3,0.4,0.6,0.5,1.1,0.2l0.3-0.2c0.4-0.3,0.5-0.6,0.2-1.1l-9.6-14.8
	c-0.3-0.4-1.1-4.3-2.4-11.6c-0.2-0.4-0.6-0.4-1.1-0.2l-0.3,0.2c-0.4,0.6,0.1,3.8,1.4,9.4l-0.3,0.2c-4.6-3.5-7.2-5.2-7.9-5.1l-1,0.6
	L26.1,15.1z M10.6,32.1l0.3,0.2c0.4,0.3,0.8,0.3,1.1-0.1l2.7-3.4l16.3,13.3c1.4,1.1,3.7,2.9,6.9,5.1l1-1.2l-10.9-8.9
	c-3-2.4-7.1-5.6-12.3-9.5l2.7-3.4c0.3-0.4,0.3-0.8-0.1-1.1l-0.3-0.2c-0.3-0.3-0.7-0.2-1.1,0.1L10.4,31
	C10.2,31.3,10.2,31.7,10.6,32.1 M6,44.5l27,12l0.6-1.4c-10.2-4.8-18.1-8.5-23.6-10.9l-4.3-1.9c-0.4-0.2-0.7,0-1,0.4l-0.3,0.7L6,44.5
	z M4,64.5L6,64.8l2.4-0.1c6.4-2.8,11.1-4,14.2-3.5l2.3,0.3c2.8,0.7,4,1.8,3.8,3.3c-0.8,0.7-1.7,1-2.5,0.8l-0.1,0.8
	c-0.1,0.4,0.2,0.7,0.7,0.9c1.4,0.2,2.5-0.3,3.3-1.5l0.2-1.2c0.4-2.9-1.7-4.6-6.3-5.3l-0.4-0.1c-1.7-0.2-3.5-0.2-5.5,0
	C10.7,62,6.5,63.2,5.4,63.1c-2.3-0.7-3.3-1.6-3.1-2.8c0.5-1.5,1.2-2.2,2.2-2.1l0.2-1.6l-0.4-0.1C3,56.4,1.8,57,1,58.5l-0.3,1.9
	C0.4,62.4,1.5,63.8,4,64.5 M1.9,81.3c1.1-2,3.3-3.2,6.5-3.7c2.6-0.4,4.7,0.4,6.6,2.2l-13,1.9L1.9,81.3z M2.6,83.6l5.8-0.8l4.5-1
	c0,0.3,0.2,0.4,0.4,0.3c0.4-0.3,0.9-0.5,1.5-0.6L31.7,79l-0.2-1.6l-12.7,1.8l-0.1-0.4c8-4.2,12-6.6,11.9-7.3l-0.5-0.7
	c-1.3,0.2-5.9,2.7-13.8,7.5c-2.7-2.3-5.5-3.2-8.2-2.8C2.3,77-0.4,79.3,0,82.3l0.1,0.4C0.2,83.3,1,83.6,2.6,83.6 M8.9,102.8L36,89.1
	l-2.9-6c-0.2-0.5-0.6-0.6-1-0.3c-0.4,0.2-0.5,0.5-0.4,1l2.2,4.6c-3.2,1.3-5.6,2.4-7.1,3.1l-6.2,3.1L19,91.5L17.8,90l-0.7,0.4
	c-0.4,0.2-0.5,0.5-0.3,1l2.1,4.2l-10.1,5.1l-2.1-4.2c-0.2-0.5-0.6-0.6-1-0.3l-0.3,0.2c-0.4,0.2-0.5,0.5-0.4,1l2.4,4.9
	C8.1,102.7,8.6,102.9,8.9,102.8 M40.2,96.4l-0.5-0.6c-4.2,3.1-12,9.1-23.2,18.1l0.8,0.8c0.5,0.5,6.5-3.9,18-13.4l0.3,0.3
	c-8.9,12.2-13,18.5-12.6,19l0.8,0.8C35.2,105.3,40.7,97,40.2,96.4 M35.3,128.5l15-25.7L49,102c-6,9.7-10.5,17.2-13.6,22.5l-2.4,4.1
	c-0.2,0.4-0.1,0.7,0.3,1.1L34,130L35.3,128.5z M51.3,122.4l0.4-1.5c1.1-4,3.7-7.4,8-10.4l-0.3,1.1c-1.3,5-3.5,12.4-6.3,22.3
	l-0.1,0.4C50.8,130,50.3,126.1,51.3,122.4 M54.1,137.4l2.3-8.7c1.3-4.7,3.2-11.7,5.9-20.8l-0.7-0.6l-0.4-0.1
	c-6.2,3.3-10.1,7.9-11.7,13.9c-1.5,5.5-0.4,11.1,3.2,16.7l0.4,0.1C53.6,138.1,53.9,137.9,54.1,137.4 M91.1,135.5
	c2.4-2.6,2-8.3-1-17.1c-3.5-10.1-6.9-14.6-10-13.5c-2.3,1.2-3.2,2.8-2.5,4.6c0.9,2.5,1.8,5.5,2.7,9c0.1,0.4,0.5,0.6,1,0.5l4-1.4
	c0.4-0.1,0.6-0.5,0.5-1l-1.1-0.8l-2.4,1.3l-0.4,0.1L79,109c0.2-1.2,0.6-1.9,0.9-2l0.4-0.1c2.2-0.8,4.9,3.5,8.2,12.9
	c2.5,9.1,3,13.9,1.3,14.5l-0.4,0.1l-3-1.4l-0.4,0.1l-0.6,0.6c0.6,1.6,2.1,2.5,4.6,2.5C90.5,135.8,90.8,135.5,91.1,135.5 M95.3,96.2
	c-0.3-0.4-0.7-0.5-1.1-0.1c-0.4,0.3-0.4,0.7-0.1,1.1l13.1,16.5l-0.3,0.3c-2.4-2.4-3.8-3.4-4.1-3.2c-8.4-7.6-13-11.1-13.8-10.5
	c-0.4,0.3-0.4,0.7-0.1,1.1l19.2,24.2l0.9-0.7c0.3-0.3,0.4-0.6,0.1-1.1l-12.4-15.6l0.3-0.2c1.7,1.7,7.1,6.2,16.2,13.5l1.2-1
	L95.3,96.2z M123.3,107.4l-24.2-17l-0.9,1.3c9.1,6.7,16.2,11.9,21.1,15.3l3.8,2.7c0.4,0.2,0.7,0.2,1.1-0.2l0.4-0.6L123.3,107.4z
	 M133.7,87.8l-0.4-0.1c-0.5-0.2-0.8,0-1,0.5l-1.5,4l-19.5-7.5c-1.7-0.6-4.4-1.5-8.1-2.7l-0.5,1.5l13,5c3.6,1.4,8.4,3.1,14.6,5.2
	l-1.5,4c-0.2,0.5,0,0.8,0.5,1l0.4,0.1c0.4,0.2,0.7,0,1-0.5l3.6-9.5C134.3,88.4,134.2,88,133.7,87.8 M129.2,73.1
	c-1.5-0.1-5.2,0.2-11.3,0.8l0.2-3.5c6.1,1.4,9.8,2.2,11.1,2.3L129.2,73.1z M136.6,72.8c-1.8-0.6-11.7-2.9-29.9-6.6
	c-0.5,0-0.8,0.2-0.8,0.7l0,0.8c7.1,1.6,10.7,2.6,10.7,3l-0.2,3.5c-7.3,0.2-10.9,0.7-11,1.7l0.3,0.8c10.1-0.6,15.2-1,15.2-1.4
	c10.4-0.3,15.6-1.1,15.7-2.1L136.6,72.8z M132.1,49.3c-0.9,2.1-2.9,3.6-6,4.5c-2.5,0.7-4.7,0.2-6.8-1.4l12.7-3.5L132.1,49.3z
	 M131.1,47.1l-5.6,1.5l-4.4,1.6c-0.1-0.2-0.2-0.3-0.5-0.3c-0.4,0.4-0.8,0.6-1.4,0.8l-16.5,4.5l0.4,1.5l12.4-3.4l0.1,0.4
	c-7.5,5.2-11.1,8.1-10.9,8.7l0.6,0.6c1.3-0.4,5.5-3.4,12.8-9.2c3,1.9,5.8,2.5,8.5,1.7c5.6-2.1,8-4.7,7.2-7.7l-0.1-0.4
	C133.5,47,132.7,46.9,131.1,47.1 M107.3,44.8c-2.4,1.7-4.9,1.8-7.3,0.4l-0.2-0.3l9.9-6.9C110,41.2,109.2,43.5,107.3,44.8
	 M119.1,36.5c-2.2,1.5-4.8,1.6-7.8,0.3l10.5-7.4C122.9,31,122,33.4,119.1,36.5 M121.3,27.4L97.5,44.1c-0.4,0.3-0.5,0.7-0.2,1.1
	c3.7,3.1,6.8,3.8,9.4,2l1.9-1.3c2.4-1.7,3.3-3.9,2.9-6.8c3.6,0.6,6.1,0.5,7.3-0.3l1.9-1.3c3.4-3.7,4.3-6.9,2.5-9.4
	C122.5,27.2,121.9,27,121.3,27.4 M106.9,13.5L88.5,37.8l5.2,4.1c0.4,0.3,0.8,0.3,1.1-0.2c0.3-0.4,0.2-0.7-0.1-1.1l-4-3.1
	c2.3-2.6,4-4.6,5-6l4.2-5.6l2.8,2.1l1.8,0.9l0.5-0.6c0.3-0.3,0.2-0.7-0.1-1.1l-3.7-2.9l6.8-9l3.7,2.9c0.4,0.3,0.8,0.3,1.1-0.2
	l0.2-0.3c0.3-0.3,0.2-0.7-0.1-1.1l-4.3-3.3C107.7,13.1,107.1,13.2,106.9,13.5 M90.1,5.6L79.4,32.1c-0.2,0.5-0.1,0.8,0.4,1l5.7,2.4
	c0.5,0.2,0.8,0.1,1-0.4c-0.1-0.9-0.3-1.4-0.6-1.5l-4.3-1.8L92.2,5.6l-1.1-0.4C90.7,5,90.4,5.1,90.1,5.6 M71.2,1.1l-2.7,30.5l6.6,0.6
	c0.5,0,0.8-0.2,0.8-0.7c0-0.4-0.2-0.7-0.7-0.9l-5-0.5c0.6-3.5,0.9-6.1,1.1-7.8l0.6-7l3.5,0.3l2-0.2l0.1-0.8c0-0.4-0.2-0.7-0.7-0.8
	L72,13.4L73,2l4.6,0.4c0.5,0,0.8-0.2,0.8-0.7l0-0.4c0-0.4-0.2-0.7-0.7-0.9L72.4,0C71.6,0.3,71.2,0.7,71.2,1.1 M53.3,16.3l0.4,2.3
	c1.8,9.8,4.4,14.3,7.7,13.7l0.4-0.1c1.5-0.3,2.5-1.4,2.9-3.4c-0.1-0.4-0.4-0.6-0.9-0.6l-0.4,0.1c-1.3,1.6-2.1,2.4-2.3,2.5
	c-2,0.4-3.9-4-5.7-13.3l-0.4-1.9C54,7.1,54.2,2.7,55.8,2.2L56.6,2l2.7,1.9C59.8,3.8,60,3.5,59.9,3c-0.8-2.2-2.1-3.2-3.7-2.9
	C52.4,0.9,51.4,6.2,53.3,16.3"/>
</svg>
